test.vcd
$date
	Thu Feb 16 00:27:28 2017
$end
$version
	Icarus Verilog
$end
$timescale
	1s
$end
$scope module test $end
$scope module top0 $end
$var wire 1 ! clk $end
$var wire 32 " in [31:0] $end
$var wire 1 # last_in $end
$var wire 1 $ last_out $end
$var wire 1 % last_out0 $end
$var wire 1 & last_out1 $end
$var wire 1 ' last_out2 $end
$var wire 1 ( last_out3 $end
$var wire 32 ) out [31:0] $end
$var wire 32 * out0 [31:0] $end
$var wire 32 + out1 [31:0] $end
$var wire 32 , out2 [31:0] $end
$var wire 32 - out3 [31:0] $end
$var wire 1 . ready $end
$var wire 1 / rst_n $end
$var wire 1 0 valid_in $end
$var wire 1 1 valid_out $end
$var wire 1 2 valid_out0 $end
$var wire 1 3 valid_out1 $end
$var wire 1 4 valid_out2 $end
$var wire 1 5 valid_out3 $end
$scope module tw0 $end
$var wire 1 6 S0_enable $end
$var wire 1 7 S0toS1 $end
$var wire 1 8 S1_enable $end
$var wire 1 9 S1toS2 $end
$var wire 1 : S2_enable $end
$var wire 1 ; S2toIDLE $end
$var wire 1 < S2toS1 $end
$var wire 1 ! clk $end
$var wire 32 = in [31:0] $end
$var wire 1 # last_in $end
$var wire 1 . ready $end
$var wire 1 / rst_n $end
$var wire 1 0 valid_in $end
$var wire 1 > we $end
$var reg 32 ? buff [31:0] $end
$var reg 1 @ delay_last $end
$var reg 1 A last_out $end
$var reg 32 B out [31:0] $end
$var reg 2 C state [1:0] $end
$var reg 1 D valid_out $end
$upscope $end
$scope module f0 $end
$var wire 1 E S0_enable $end
$var wire 1 F S0toS1 $end
$var wire 1 G S1_enable $end
$var wire 1 H S1toS2 $end
$var wire 1 I S1toS3 $end
$var wire 1 J S2_enable $end
$var wire 1 K S2toS3 $end
$var wire 1 L S2toS4 $end
$var wire 1 M S3_enable $end
$var wire 1 N S3toS0 $end
$var wire 1 O S3toS1 $end
$var wire 1 P S4_enable $end
$var wire 1 Q S4toS0 $end
$var wire 1 R S4toS1 $end
$var wire 1 ! clk $end
$var wire 32 S in [31:0] $end
$var wire 1 % last_in $end
$var wire 32 T mem0 [31:0] $end
$var wire 32 U mem1 [31:0] $end
$var wire 32 V mem2 [31:0] $end
$var wire 32 W mem3 [31:0] $end
$var wire 1 / rst_n $end
$var wire 1 2 valid_in $end
$var wire 1 X we $end
$var reg 1 Y delay_last $end
$var reg 2 Z head [1:0] $end
$var reg 1 [ last_out $end
$var reg 32 \ out [31:0] $end
$var reg 3 ] state [2:0] $end
$var reg 1 ^ tail0 $end
$var reg 1 _ tail1 $end
$var reg 1 ` valid_out $end
$upscope $end
$scope module e0 $end
$var wire 1 a S0_enable $end
$var wire 1 b S0toS1 $end
$var wire 1 c S1_enable $end
$var wire 1 d S1toS2 $end
$var wire 1 e S1toS3 $end
$var wire 1 f S2_enable $end
$var wire 1 g S2toS3 $end
$var wire 1 h S2toS4 $end
$var wire 1 i S3_enable $end
$var wire 1 j S3toS0 $end
$var wire 1 k S3toS1 $end
$var wire 1 l S4_enable $end
$var wire 1 m S4toS0 $end
$var wire 1 n S4toS1 $end
$var wire 1 ! clk $end
$var wire 32 o in [31:0] $end
$var wire 1 & last_in $end
$var wire 32 p mem0 [31:0] $end
$var wire 32 q mem1 [31:0] $end
$var wire 32 r mem2 [31:0] $end
$var wire 32 s mem3 [31:0] $end
$var wire 32 t mem4 [31:0] $end
$var wire 32 u mem5 [31:0] $end
$var wire 32 v mem6 [31:0] $end
$var wire 32 w mem7 [31:0] $end
$var wire 1 / rst_n $end
$var wire 1 3 valid_in $end
$var wire 1 x we $end
$var reg 1 y delay_last $end
$var reg 3 z head [2:0] $end
$var reg 1 { last_out $end
$var reg 32 | out [31:0] $end
$var reg 3 } state [2:0] $end
$var reg 2 ~ tail0 [1:0] $end
$var reg 2 !" tail1 [1:0] $end
$var reg 1 "" valid_out $end
$upscope $end
$scope module s0 $end
$var wire 1 #" S0_enable $end
$var wire 1 $" S0toS1 $end
$var wire 1 %" S1_enable $end
$var wire 1 &" S1toS2 $end
$var wire 1 '" S1toS3 $end
$var wire 1 (" S2_enable $end
$var wire 1 )" S2toS3 $end
$var wire 1 *" S2toS4 $end
$var wire 1 +" S3_enable $end
$var wire 1 ," S3toS0 $end
$var wire 1 -" S3toS1 $end
$var wire 1 ." S4_enable $end
$var wire 1 /" S4toS0 $end
$var wire 1 0" S4toS1 $end
$var wire 1 ! clk $end
$var wire 32 1" in [31:0] $end
$var wire 1 ' last_in $end
$var wire 32 2" mem0 [31:0] $end
$var wire 32 3" mem1 [31:0] $end
$var wire 32 4" mem2 [31:0] $end
$var wire 32 5" mem3 [31:0] $end
$var wire 32 6" mem4 [31:0] $end
$var wire 32 7" mem5 [31:0] $end
$var wire 32 8" mem6 [31:0] $end
$var wire 32 9" mem7 [31:0] $end
$var wire 1 / rst_n $end
$var wire 1 4 valid_in $end
$var wire 1 :" we $end
$var reg 1 ;" delay_last $end
$var reg 4 <" head [3:0] $end
$var reg 1 =" last_out $end
$var reg 32 >" out [31:0] $end
$var reg 3 ?" state [2:0] $end
$var reg 3 @" tail0 [2:0] $end
$var reg 3 A" tail1 [2:0] $end
$var reg 1 B" valid_out $end
$upscope $end
$scope module t0 $end
$var wire 1 C" S0_enable $end
$var wire 1 D" S0toS1 $end
$var wire 1 E" S1_enable $end
$var wire 1 F" S1toS2 $end
$var wire 1 G" S1toS3 $end
$var wire 1 H" S2_enable $end
$var wire 1 I" S2toS3 $end
$var wire 1 J" S2toS4 $end
$var wire 1 K" S3_enable $end
$var wire 1 L" S3toS0 $end
$var wire 1 M" S3toS1 $end
$var wire 1 N" S4_enable $end
$var wire 1 O" S4toS0 $end
$var wire 1 P" S4toS1 $end
$var wire 1 ! clk $end
$var wire 32 Q" in [31:0] $end
$var wire 1 ( last_in $end
$var wire 32 R" mem0 [31:0] $end
$var wire 32 S" mem1 [31:0] $end
$var wire 32 T" mem2 [31:0] $end
$var wire 32 U" mem3 [31:0] $end
$var wire 32 V" mem4 [31:0] $end
$var wire 32 W" mem5 [31:0] $end
$var wire 32 X" mem6 [31:0] $end
$var wire 32 Y" mem7 [31:0] $end
$var wire 1 / rst_n $end
$var wire 1 5 valid_in $end
$var wire 1 Z" we $end
$var reg 1 [" delay_last $end
$var reg 5 \" head [4:0] $end
$var reg 1 ]" last_out $end
$var reg 32 ^" out [31:0] $end
$var reg 3 _" state [2:0] $end
$var reg 4 `" tail0 [3:0] $end
$var reg 4 a" tail1 [3:0] $end
$var reg 1 b" valid_out $end
$upscope $end
$upscope $end
$upscope $end
$enddefinitions $end
#0
$dumpvars
xb"
bx a"
bx `"
bx _"
bx ^"
x]"
bx \"
x["
xZ"
bz Y"
bz X"
bz W"
bz V"
bz U"
bz T"
bz S"
bz R"
bx Q"
xP"
xO"
xN"
xM"
xL"
xK"
xJ"
xI"
xH"
xG"
xF"
xE"
xD"
xC"
xB"
bx A"
bx @"
bx ?"
bx >"
x="
bx <"
x;"
x:"
bz 9"
bz 8"
bz 7"
bz 6"
bz 5"
bz 4"
bz 3"
bz 2"
bx 1"
x0"
x/"
x."
x-"
x,"
x+"
x*"
x)"
x("
x'"
x&"
x%"
x$"
x#"
x""
bx !"
bx ~
bx }
bx |
x{
bx z
xy
xx
bz w
bz v
bz u
bz t
bz s
bz r
bz q
bz p
bx o
xn
xm
xl
xk
xj
xi
xh
xg
xf
xe
xd
xc
xb
xa
x`
x_
x^
bx ]
bx \
x[
bx Z
xY
xX
bz W
bz V
bz U
bz T
bx S
xR
xQ
xP
xO
xN
xM
xL
xK
xJ
xI
xH
xG
xF
xE
xD
bx C
bx B
xA
x@
bx ?
x>
bx =
x<
x;
x:
x9
x8
x7
x6
x5
x4
x3
x2
x1
x0
0/
x.
bx -
bx ,
bx +
bx *
bx )
x(
x'
x&
x%
x$
x#
bx "
0!
$end
#5
0<
0R
0O
0n
0k
00"
0-"
0P"
0M"
0>
0.
06
08
07
09
0;
0H
0I
0K
0L
0F
0Q
0N
0d
0e
0g
0h
0b
0m
0j
0&"
0'"
0)"
0*"
0$"
0/"
0,"
0F"
0G"
0I"
0J"
0D"
0O"
0L"
b0 C
0:
b0 ?
0@
b1 ]
0G
0J
0M
0P
0_
0^
b0 Z
0Y
b1 }
0c
0f
0i
0l
b0 !"
b0 ~
b0 z
0y
b1 ?"
0%"
0("
0+"
0."
b0 A"
b0 @"
b0 <"
0;"
b1 _"
0E"
0H"
0K"
0N"
b0 a"
b0 `"
b0 \"
0["
1!
#10
0!
0#
10
1/
#15
16
17
0C"
0#"
0a
0E
1>
1.
0]"
0$
0b"
01
0="
0(
0B"
0Z"
05
0{
0'
0""
0:"
04
0[
0&
0`
0x
03
0A
0%
0D
0X
02
b1 C
1!
#20
0!
#25
06
18
07
19
b10 C
b100100 ?
1!
b100100 "
b100100 =
#30
0!
#35
1<
1E
08
09
1D
1X
12
b101100 B
b101100 *
b101100 S
b11 C
1:
1!
b101100 "
b101100 =
#40
0!
#45
0<
18
19
1F
b10 C
0:
b111000 ?
b100100 B
b100100 *
b100100 S
b1 Z
b101100 T
1!
b111000 "
b111000 =
#50
0!
#55
1<
0E
0F
08
09
b10 Z
b100100 U
b10 ]
1G
b110001 ?
b111000 B
b111000 *
b111000 S
b11 C
1:
1!
b110001 "
b110001 =
#60
0!
#65
0<
18
19
1I
1a
b10 C
0:
b11010 ?
b110001 B
b110001 *
b110001 S
1_
b11 Z
1`
1x
13
b111000 \
b111000 +
b111000 o
b101100 V
1!
b11010 "
b11010 =
#70
0!
#75
1<
0I
08
09
b1 z
b111000 p
0_
b0 Z
b110001 \
b110001 +
b110001 o
b101100 W
b100 ]
0G
1M
b1111111 B
b1111111 *
b1111111 S
b11 C
1:
1!
b1111111 "
b1111111 =
#80
0!
#85
0<
1O
18
19
b10 C
0:
b1011 ?
b11010 B
b11010 *
b11010 S
1^
b1 Z
b101100 \
b101100 +
b101100 o
b1111111 T
b10 z
b110001 q
1!
b1011 "
b1011 =
#90
0!
#95
0O
1<
1b
1H
08
09
b11 z
b101100 r
0^
b10 Z
b100100 \
b100100 +
b100100 o
b11010 U
b10 ]
1G
0M
b100110 B
b100110 *
b100110 S
b11 C
1:
1!
b100110 "
b100110 =
#100
0!
#105
0<
18
19
0H
0a
0b
b10 C
0:
b1011010 ?
b1011 B
b1011 *
b1011 S
b11 ]
0G
1J
1^
b11 Z
b1111111 \
b1111111 +
b1111111 o
b100110 V
b10 }
1c
b100 z
b100100 s
1!
b1011010 "
b1011010 =
#110
0!
#115
1L
1<
1#"
0K
1d
08
09
b1 !"
b101 z
1""
1:"
14
b1111111 |
b1111111 ,
b1111111 1"
b111000 t
1_
b0 Z
b100110 \
b100110 +
b100110 o
b1011 W
b101110 ?
b1011010 B
b1011010 *
b1011010 S
b11 C
1:
1!
b101110 "
b101110 =
#120
0!
#125
0<
1R
18
19
0L
0d
b10 C
0:
b111011 ?
b101110 B
b101110 *
b101110 S
b101 ]
0J
1P
0^
b1 Z
b11010 \
b11010 +
b11010 o
b1011010 T
b11 }
0c
1f
b1 ~
b110 z
b111000 |
b111000 ,
b111000 1"
b100110 u
b1 <"
b1111111 2"
1!
b111011 "
b111011 =
#130
0!
#135
0R
1<
1H
08
09
b10 <"
b111000 3"
b10 ~
b111 z
b110001 |
b110001 ,
b110001 1"
b11010 v
0_
b10 Z
b1011 \
b1011 +
b1011 o
b101110 U
b10 ]
1G
0P
b11011 ?
b111011 B
b111011 *
b111011 S
b11 C
1:
1!
b11011 "
b11011 =
#140
0!
#145
0<
18
19
0H
0h
b10 C
0:
b100 ?
b11011 B
b11011 *
b11011 S
b11 ]
0G
1J
1^
b11 Z
b1011010 \
b1011010 +
b1011010 o
b111011 V
b11 ~
b0 z
b101100 |
b101100 ,
b101100 1"
b1011 w
b11 <"
b110001 4"
1!
b100 "
b100 =
#150
0!
#155
1h
1L
1<
0K
08
09
b100 <"
b101100 5"
b10 !"
b1 z
b100110 |
b100110 ,
b100110 1"
b1011010 p
1_
b0 Z
b111011 \
b111011 +
b111011 o
b11011 W
b1111101 B
b1111101 *
b1111101 S
b11 C
1:
1!
b1111101 "
b1111101 =
#160
0!
#165
0<
1R
18
19
0L
0h
b10 C
0:
b111101 ?
b100 B
b100 *
b100 S
b101 ]
0J
1P
0^
b1 Z
b101110 \
b101110 +
b101110 o
b1111101 T
b101 }
0f
1l
b0 ~
b10 z
b100100 |
b100100 ,
b100100 1"
b111011 q
b101 <"
b100110 6"
1!
b111101 "
b111101 =
#170
0!
#175
1n
0R
1<
1H
08
09
b110 <"
b100100 7"
b11 !"
b11 z
b11010 |
b11010 ,
b11010 1"
b101110 r
0_
b10 Z
b11011 \
b11011 +
b11011 o
b100 U
b10 ]
1G
0P
b111110 B
b111110 *
b111110 S
b11 C
1:
1!
b111110 "
b111110 =
#180
0!
#185
0<
0n
18
19
0H
1$"
b10 C
0:
b1001001 ?
b111101 B
b111101 *
b111101 S
b11 ]
0G
1J
1^
b11 Z
b1111101 \
b1111101 +
b1111101 o
b111110 V
b10 }
1c
0l
b0 !"
b100 z
b1011 |
b1011 ,
b1011 1"
b11011 s
b111 <"
b11010 8"
1!
b1001001 "
b1001001 =
#190
0!
#195
1<
0#"
0$"
1&"
1K
1d
08
09
b1000 <"
b1011 9"
b10 ?"
1%"
b1 !"
b101 z
b1111101 |
b1111101 ,
b1111101 1"
b1011010 t
1_
b0 Z
b111110 \
b111110 +
b111110 o
b111101 W
b1111011 B
b1111011 *
b1111011 S
b11 C
1:
1!
b1111011 "
b1111011 =
#200
0!
#205
0<
1O
18
19
0K
0d
0&"
1C"
b10 C
0:
b10001111 ?
b1001001 B
b1001001 *
b1001001 S
b100 ]
0J
1M
0_
b1 Z
b111101 \
b111101 +
b111101 o
b1111011 T
b11 }
0c
1f
b1 ~
b110 z
b1011010 |
b1011010 ,
b1011010 1"
b111110 u
b11 ?"
0%"
1("
b1 @"
b1001 <"
1B"
1Z"
15
b1111111 >"
b1111111 -
b1111111 Q"
1!
b10001111 "
b10001111 =
#210
0!
#215
0O
1<
08
09
b1 \"
b1111111 R"
b1 A"
b1010 <"
b1111101 >"
b1111101 -
b1111101 Q"
b10 !"
b111 z
b111110 |
b111110 ,
b111110 1"
b111101 v
0^
b10 Z
b100 \
b100 +
b100 o
b1001001 U
b10 ]
1G
0M
b1110101 ?
b10001111 B
b10001111 *
b10001111 S
b11 C
1:
1!
b1110101 "
b1110101 =
#220
0!
#225
0<
18
19
1H
0I
0g
b10 C
0:
b1011111 ?
b1110101 B
b1110101 *
b1110101 S
1_
b11 Z
b10001111 \
b10001111 +
b10001111 o
b1111011 V
b11 !"
b0 z
b111101 |
b111101 ,
b111101 1"
b100 w
b10 A"
b1011 <"
b1011010 >"
b1011010 -
b1011010 Q"
b10 \"
b1111101 S"
1!
b1011111 "
b1011111 =
#230
0!
#235
1K
1<
0H
08
09
b11 \"
b1011010 T"
b11 A"
b1100 <"
b111110 >"
b111110 -
b111110 Q"
b10 ~
b1 z
b111011 |
b111011 ,
b111011 1"
b10001111 p
1^
b0 Z
b1111011 \
b1111011 +
b1111011 o
b1110101 W
b11 ]
0G
1J
b100000 ?
b1011111 B
b1011111 *
b1011111 S
b11 C
1:
1!
b100000 "
b100000 =
#240
0!
#245
0<
1O
18
19
0K
1h
b10 C
0:
b100111 ?
b100000 B
b100000 *
b100000 S
b100 ]
0J
1M
0_
b1 Z
b1110101 \
b1110101 +
b1110101 o
b1011111 T
b11 ~
b10 z
b101110 |
b101110 ,
b101110 1"
b1111011 q
b100 A"
b1101 <"
b111101 >"
b111101 -
b111101 Q"
b100 \"
b111110 U"
1!
b100111 "
b100111 =
#250
0!
#255
1n
0O
1<
0h
1H
08
09
b101 \"
b111101 V"
b101 A"
b1110 <"
b111011 >"
b111011 -
b111011 Q"
b0 ~
b11 z
b11011 |
b11011 ,
b11011 1"
b1110101 r
b101 }
0f
1l
0^
b10 Z
b1001001 \
b1001001 +
b1001001 o
b100000 U
b10 ]
1G
0M
b101111 B
b101111 *
b101111 S
b11 C
1:
1!
b101111 "
b101111 =
#260
0!
#265
0<
0n
18
19
0H
1d
b10 C
0:
b1100011 ?
b100111 B
b100111 *
b100111 S
b11 ]
0G
1J
1^
b11 Z
b1011111 \
b1011111 +
b1011111 o
b101111 V
b10 }
1c
0l
b0 !"
b100 z
b100 |
b100 ,
b100 1"
b1001001 s
b10 @"
b1111 <"
b111000 >"
b111000 -
b111000 Q"
b110 \"
b111011 W"
1!
b1100011 "
b1100011 =
#270
0!
#275
1<
0d
1K
08
09
b111 \"
b111000 X"
b11 @"
b0 <"
b110001 >"
b110001 -
b110001 Q"
b1 ~
b101 z
b10001111 |
b10001111 ,
b10001111 1"
b1011111 t
b11 }
0c
1f
1_
b0 Z
b101111 \
b101111 +
b101111 o
b100111 W
b1001010 ?
b1100011 B
b1100011 *
b1100011 S
b11 C
1:
1!
b1001010 "
b1001010 =
#280
0!
#285
0<
1O
18
19
0K
b10 C
0:
b1000001 ?
b1001010 B
b1001010 *
b1001010 S
b100 ]
0J
1M
0_
b1 Z
b100111 \
b100111 +
b100111 o
b1100011 T
b10 ~
b110 z
b1111011 |
b1111011 ,
b1111011 1"
b101111 u
b110 A"
b1 <"
b101110 >"
b101110 -
b101110 Q"
b10001111 2"
b1000 \"
b110001 Y"
1!
b1000001 "
b1000001 =
#290
0!
#295
0O
1<
0h
1H
08
09
b1001 \"
b100 @"
b10 <"
b101100 >"
b101100 -
b101100 Q"
b1111011 3"
b11 ~
b111 z
b1110101 |
b1110101 ,
b1110101 1"
b100111 v
0^
b10 Z
b100000 \
b100000 +
b100000 o
b1001010 U
b10 ]
1G
0M
b1110 ?
b1000001 B
b1000001 *
b1000001 S
b11 C
1:
1!
b1110 "
b1110 =
#300
0!
#305
0<
1L
1h
18
19
0H
b10 C
0:
b10010111 ?
b1110 B
b1110 *
b1110 S
b11 ]
0G
1J
1^
b11 Z
b1100011 \
b1100011 +
b1100011 o
b1000001 V
b1 !"
b0 z
b1011111 |
b1011111 ,
b1011111 1"
b100000 w
b101 @"
b11 <"
b100110 >"
b100110 -
b100110 Q"
b1110101 4"
b1010 \"
1!
b10010111 "
b10010111 =
#310
0!
#315
1<
0h
0L
08
09
b1011 \"
b110 @"
b100 <"
b100100 >"
b100100 -
b100100 Q"
b1011111 5"
b0 ~
b1 z
b1001001 |
b1001001 ,
b1001001 1"
b1100011 p
b101 }
0f
1l
0^
b0 Z
b1001010 \
b1001010 +
b1001010 o
b1110 W
b101 ]
0J
1P
b1111010 ?
b10010111 B
b10010111 *
b10010111 S
b11 C
1:
1!
b1111010 "
b1111010 =
#320
0!
#325
0<
1R
18
19
0)"
b10 C
0:
b10011011 ?
b1111010 B
b1111010 *
b1111010 S
1_
b1 Z
b1000001 \
b1000001 +
b1000001 o
b10010111 T
b10 !"
b10 z
b101111 |
b101111 ,
b101111 1"
b1001010 q
b111 A"
b101 <"
b11011 >"
b11011 -
b11011 Q"
b1001001 6"
b1100 \"
1!
b10011011 "
b10011011 =
#330
0!
#335
1n
0R
1*"
08
09
1;
b1101 \"
b111 @"
b110 <"
b11010 >"
b11010 -
b11010 Q"
b101111 7"
b11 !"
b11 z
b100111 |
b100111 ,
b100111 1"
b1000001 r
0_
b10 Z
b1110 \
b1110 +
b1110 o
b1111010 U
b10 ]
1G
0P
1@
b10100001 B
b10100001 *
b10100001 S
b11 C
1:
1!
1#
b10100001 "
b10100001 =
#340
0!
#345
0n
10"
0;
1I
0*"
b0 C
0:
1A
1%
b10011011 B
b10011011 *
b10011011 S
0@
1_
b11 Z
b10100001 \
b10100001 +
b10100001 o
b10010111 V
b10 }
1c
0l
b0 !"
b100 z
b100000 |
b100000 ,
b100000 1"
b1110 s
b101 ?"
0("
1."
b0 @"
b111 <"
b1011 >"
b1011 -
b1011 Q"
b100111 8"
b1110 \"
0>
0.
1!
0#
00
b100001 "
b100001 =
#350
0!
#355
00"
1D"
0I
b1111 \"
b0 A"
b1000 <"
b100 >"
b100 -
b100 Q"
b100000 9"
b10 ?"
1%"
0."
b1 !"
b101 z
b10100001 |
b10100001 ,
b10100001 1"
b1100011 t
1Y
0_
b0 Z
b10011011 \
b10011011 +
b10011011 o
b10010111 W
b100 ]
0G
1M
0A
0%
0D
0X
02
1!
#360
0!
#365
1N
0C"
0D"
1^
b10010111 \
b10010111 +
b10010111 o
b10011011 T
b10 !"
b110 z
b10011011 |
b10011011 ,
b10011011 1"
b1100011 u
b1 A"
b1001 <"
b10100001 >"
b10100001 -
b10100001 Q"
b10 _"
1E"
b10000 \"
1!
#370
0!
#375
1e
0N
b1 a"
b10001 \"
1b"
11
b10100001 ^"
b10100001 )
b10 A"
b1010 <"
b10011011 >"
b10011011 -
b10011011 Q"
b11 !"
b111 z
b10010111 |
b10010111 ,
b10010111 1"
b1100011 v
0Y
0^
1[
1&
b1111010 \
b1111010 +
b1111010 o
b1 ]
0M
1!
#380
0!
#385
0e
1&"
0[
0&
0`
0x
03
b100 }
0c
1i
b0 !"
b0 z
b1111010 |
b1111010 ,
b1111010 1"
b1100011 w
1y
b11 A"
b1011 <"
b10010111 >"
b10010111 -
b10010111 Q"
b10 a"
b10010 \"
b10011011 ^"
b10011011 )
1!
#390
0!
#395
0&"
b11 a"
b10011 \"
b10010111 ^"
b10010111 )
b1 @"
b1100 <"
b10001111 >"
b10001111 -
b10001111 Q"
b11 ?"
0%"
1("
b1 ~
b1100011 |
b1100011 ,
b1100011 1"
b1111010 p
1!
#400
0!
#405
1F"
b10 ~
b1001010 |
b1001010 ,
b1001010 1"
b10 @"
b1101 <"
b1111011 >"
b1111011 -
b1111011 Q"
b100 a"
b10100 \"
b10001111 ^"
b10001111 )
1!
#410
0!
#415
1j
0F"
b1 `"
b10101 \"
b1111111 ^"
b1111111 )
b11 _"
0E"
1H"
b100 A"
b1110 <"
b1111010 >"
b1111010 -
b1111010 Q"
b11 ~
b1000001 |
b1000001 ,
b1000001 1"
1!
#420
0!
#425
0k
0j
b1 }
0i
b0 ~
1{
1'
b1110 |
b1110 ,
b1110 1"
0y
b11 @"
b1111 <"
b1110101 >"
b1110101 -
b1110101 Q"
b10 `"
b10110 \"
b1111101 ^"
b1111101 )
1!
#430
0!
#435
b101 a"
b10111 \"
b1111011 ^"
b1111011 )
1;"
b101 A"
b0 <"
b1100011 >"
b1100011 -
b1100011 Q"
0{
0'
0""
0:"
04
1!
#440
0!
#445
b100 @"
b1011111 >"
b1011111 -
b1011111 Q"
b1110 2"
b110 a"
b11000 \"
b1111010 ^"
b1111010 )
1!
#450
0!
#455
b111 a"
b11001 \"
b1110101 ^"
b1110101 )
b110 A"
b1001010 >"
b1001010 -
b1001010 Q"
1!
#460
0!
#465
b101 @"
b1001001 >"
b1001001 -
b1001001 Q"
b1000 a"
b11010 \"
b1100011 ^"
b1100011 )
1!
#470
0!
#475
0)"
b1001 a"
b11011 \"
b1011111 ^"
b1011111 )
b111 A"
b1000001 >"
b1000001 -
b1000001 Q"
1!
#480
0!
#485
b110 @"
b101111 >"
b101111 -
b101111 Q"
b11 `"
b11100 \"
b1011010 ^"
b1011010 )
1!
#490
0!
#495
1*"
b1010 a"
b11101 \"
b1001010 ^"
b1001010 )
b111 @"
b100111 >"
b100111 -
b100111 Q"
1!
#500
0!
#505
1/"
0*"
b101 ?"
0("
1."
b0 @"
b100000 >"
b100000 -
b100000 Q"
b1011 a"
b11110 \"
b1001001 ^"
b1001001 )
1!
#510
0!
#515
0/"
b1100 a"
b11111 \"
b1000001 ^"
b1000001 )
0;"
b0 A"
1="
1(
b1110 >"
b1110 -
b1110 Q"
b1 ?"
0."
1!
#520
0!
#525
0="
0(
0B"
0Z"
05
b100 `"
b0 \"
b111110 ^"
b111110 )
1["
1!
#530
0!
#535
b101 `"
b111101 ^"
b111101 )
b1110 R"
1!
#540
0!
#545
b110 `"
b111011 ^"
b111011 )
1!
#550
0!
#555
b111 `"
b111000 ^"
b111000 )
1!
#560
0!
#565
b1000 `"
b110001 ^"
b110001 )
1!
#570
0!
#575
b1101 a"
b101111 ^"
b101111 )
1!
#580
0!
#585
b1001 `"
b101110 ^"
b101110 )
1!
#590
0!
#595
b1010 `"
b101100 ^"
b101100 )
1!
#600
0!
#605
b1110 a"
b100111 ^"
b100111 )
1!
#610
0!
#615
b1011 `"
b100110 ^"
b100110 )
1!
#620
0!
#625
b1100 `"
b100100 ^"
b100100 )
1!
#630
0!
#635
0I"
b1111 a"
b100000 ^"
b100000 )
1!
#640
0!
#645
b1101 `"
b11011 ^"
b11011 )
1!
#650
0!
#655
1I"
b1110 `"
b11010 ^"
b11010 )
1!
#660
0!
#665
0I"
b100 _"
0H"
1K"
b0 a"
b1110 ^"
b1110 )
1!
#670
0!
#675
1L"
b1111 `"
b1011 ^"
b1011 )
1!
#680
0!
#685
0M"
0L"
b1 _"
0K"
b0 `"
1]"
1$
b100 ^"
b100 )
0["
1!
#690
0!
#695
0]"
0$
0b"
01
1!
